<svg xmlns="http://www.w3.org/2000/svg" xmlns:xlink="http://www.w3.org/1999/xlink" width="24" height="24" viewBox="0 0 24 24">
    <defs>
        <path id="a" d="M15.924 2h-6.59a1.78 1.78 0 0 0-1.778 1.778v12.444c0 .98.797 1.778 1.777 1.778h8.89A1.78 1.78 0 0 0 20 16.222V6.076L15.924 2zm2.3 14.222h-8.89V3.778h5.333v3.555h3.555l.001 8.89zM5.777 5.556v14.222h10.666v1.778H5.778A1.78 1.78 0 0 1 4 19.778V5.556h1.778z"/>
    </defs>
    <g fill="none" fill-rule="evenodd">
        <path d="M0 0h24v24H0z"/>
        <mask id="b" fill="#fff">
            <use xlink:href="#a"/>
        </mask>
        <g fill="#fff" mask="url(#b)">
            <path d="M0 0h24v24H0z"/>
        </g>
    </g>
</svg>
