<svg xmlns="http://www.w3.org/2000/svg" xmlns:xlink="http://www.w3.org/1999/xlink" width="82" height="82" viewBox="0 0 82 82">
    <defs>
        <circle id="a" cx="40" cy="40" r="40"/>
        <path id="c" d="M48 48c-8.82 0-16-7.18-16-16s7.176-16 16-16 16 7.18 16 16-7.176 16-16 16zm0 4c18.844 0 32 9.868 32 24v4H16v-4c0-14.132 13.16-24 32-24z"/>
    </defs>
    <g fill="none" fill-rule="evenodd" transform="translate(1 1)">
        <mask id="b" fill="#fff">
            <use xlink:href="#a"/>
        </mask>
        <use stroke="#03A9F4" stroke-width="2" xlink:href="#a"/>
        <g mask="url(#b)">
            <g transform="translate(-8 -1)">
                <path d="M0 0h96v96H0z"/>
                <mask id="d" fill="#fff">
                    <use xlink:href="#c"/>
                </mask>
                <g mask="url(#d)">
                    <path fill="#03A9F4" d="M0 0h96v96H0z"/>
                </g>
            </g>
        </g>
    </g>
</svg>
